<?xml version="1.0" encoding="utf-8"?>
<!-- Generator: Adobe Illustrator 20.1.0, SVG Export Plug-In . SVG Version: 6.00 Build 0)  -->
<svg version="1.1" id="Layer_1" xmlns="http://www.w3.org/2000/svg" xmlns:xlink="http://www.w3.org/1999/xlink" x="0px" y="0px"
	 viewBox="0 0 28.3 17" style="enable-background:new 0 0 28.3 17;" xml:space="preserve">
<style type="text/css">
	.st0{fill:#FF9900;}
	.st1{fill:#CC0000;}
	.st2{fill:#000066;}
	.st3{fill:#FFFFFF;}
</style>
<g id="layer1">
	<g id="g10305">
		<path id="path2268" class="st0" d="M28.0944,8.50005c0.00132,4.60968-3.73458,8.34728-8.34427,8.34851
			c-4.60978,0.00113-8.34728-3.73458-8.34851-8.34427c0-0.00151,0-0.00273,0-0.00424
			c-0.00122-4.60959,3.73468-8.34737,8.34417-8.3486c4.60978-0.00122,8.34737,3.73468,8.3486,8.34436
			C28.0944,8.49722,28.0944,8.49854,28.0944,8.50005z"/>
		<path id="path1350" class="st1" d="M8.49825,0.15361C3.91588,0.18272,0.2056,3.9108,0.2056,8.50005
			c0,4.60714,3.7392,8.34634,8.34643,8.34634c2.16232,0,4.13332-0.82405,5.61648-2.17466c-0.0001,0-0.00028-0.00019-0.00066-0.00038
			h0.00179c0.3037-0.27676,0.58695-0.57536,0.84731-0.89375h-1.70998c-0.22834-0.27581-0.43586-0.56321-0.62227-0.85975h2.94916
			c0.17935-0.28702,0.34175-0.58506,0.48588-0.89375h-3.92194c-0.13367-0.28655-0.24972-0.5796-0.34882-0.87689h4.61995
			c0.27845-0.83196,0.42954-1.72204,0.42954-2.64725c0-0.61342-0.0665-1.21148-0.19235-1.78732h-5.10215
			c0.06321-0.29635,0.14299-0.58912,0.23813-0.8768h4.62165C16.36041,5.5297,16.2404,5.23137,16.1039,4.94218h-3.90659
			c0.14092-0.30106,0.30059-0.59392,0.4789-0.8767h2.94699c-0.19612-0.31246-0.41315-0.61097-0.6478-0.89375h-1.6431
			c0.25405-0.29899,0.53373-0.58054,0.83733-0.84307c-1.48324-1.3508-3.45481-2.17504-5.61761-2.17504
			C8.53404,0.15361,8.51624,0.15352,8.49825,0.15361z"/>
	</g>
	<g id="g16480">
		<g id="g13802" transform="translate(-13.74405,15.9939)">
			<path id="path13804" class="st2" d="M25.06579-5.09934l0.11115-0.75547c-0.06076,0-0.15006,0.02628-0.229,0.02628
				c-0.30935,0-0.34797-0.16532-0.32367-0.28608l0.30482-1.51942h0.47024l0.09693-0.85749h-0.4432l0.09024-0.5196h-0.9271
				c-0.01959,0.01959-0.5245,2.92222-0.5245,3.27584c0,0.52327,0.29371,0.75613,0.70799,0.75246
				C24.72394-4.98555,24.97668-5.07532,25.06579-5.09934z"/>
			<path id="path13806" class="st2" d="M25.34716-6.53945c0,1.25585,0.82885,1.55418,1.53515,1.55418
				c0.65195,0,0.99379-0.15109,0.99379-0.15109l0.15656-0.8572c0,0-0.55087,0.224-0.99859,0.224
				c-0.95432,0-0.78703-0.71157-0.78703-0.71157l1.83338,0.00556c0,0,0.11671-0.57565,0.11671-0.81029
				c0-0.58563-0.31905-1.30455-1.29475-1.30455C26.00881-8.59024,25.34716-7.62744,25.34716-6.53945z M26.90576-7.79464
				c0.50151,0,0.40901,0.56368,0.40901,0.60937h-0.98663C26.32814-7.24367,26.4213-7.79464,26.90576-7.79464z"/>
			<path id="path13808" class="st2" d="M32.53298-5.09963l0.1591-0.96873c0,0-0.43633,0.21863-0.73541,0.21863
				c-0.63047,0-0.88339-0.48135-0.88339-0.9986c0-1.04909,0.54239-1.62633,1.1462-1.62633
				c0.45291,0,0.81623,0.25424,0.81623,0.25424l0.14507-0.94132c0,0-0.42898-0.30982-0.89074-0.31161
				c-1.38895-0.00546-2.1837,0.96158-2.1837,2.63331c0,1.10805,0.58855,1.86211,1.64903,1.86211
				C32.0552-4.97792,32.53298-5.09963,32.53298-5.09963z"/>
			<path id="path13810" class="st2" d="M20.17794-8.57658c-0.60937,0-1.0764,0.19584-1.0764,0.19584l-0.12905,0.76555
				c0,0,0.38555-0.15665,0.96845-0.15665c0.33092,0,0.57301,0.03721,0.57301,0.30614c0,0.16334-0.02958,0.22363-0.02958,0.22363
				s-0.26112-0.02176-0.38207-0.02176c-0.86757,0-1.57584,0.328-1.57584,1.31689c0,0.7793,0.52968,0.958,0.85796,0.958
				c0.62708,0,0.87529-0.39592,0.88961-0.39705l-0.00725,0.32856c0,0,0.78241,0,0.78251,0l0.3491-2.44727
				C21.39837-8.54323,20.49256-8.57658,20.17794-8.57658z M20.31339-6.58937c0.01705,0.1494-0.03862,0.85589-0.57386,0.85589
				c-0.276,0-0.34768-0.211-0.34768-0.33553c0-0.24341,0.13216-0.53533,0.78326-0.53533
				C20.32677-6.60435,20.28787-6.59342,20.31339-6.58937z"/>
			<path id="path13812" class="st2" d="M22.23005-5.00703c0.20017,0,1.3444,0.05096,1.3444-1.12981
				c0-1.1041-1.05917-0.88584-1.05917-1.32951c0-0.22061,0.17267-0.29013,0.48832-0.29013c0.12519,0,0.6073,0.03985,0.6073,0.03985
				l0.112-0.78467c0,0.00009-0.31199-0.0698-0.8199-0.0698c-0.65741,0-1.32471,0.26244-1.32471,1.16033
				c0,1.01753,1.11267,0.91532,1.11267,1.34393c0,0.28608-0.31085,0.30963-0.5505,0.30963
				c-0.41457,0-0.78778-0.14233-0.7891-0.13546l-0.1186,0.77666C21.25434-5.10942,21.48466-5.00703,22.23005-5.00703z"/>
			<path id="path13814" class="st2" d="M39.8632-9.28843l-0.16061,1.19716c0,0-0.33469-0.46204-0.85833-0.46204
				c-0.98522,0-1.49295,0.98183-1.49295,2.10966c0,0.72815,0.3621,1.44189,1.10203,1.44189
				c0.53231,0,0.82743-0.37124,0.82743-0.37124l-0.03909,0.31698h0.86456l0.67889-4.22592L39.8632-9.28843z M39.48151-6.96164
				c0,0.46939-0.23248,1.09647-0.71412,1.09647c-0.3199,0-0.46986-0.26856-0.46986-0.68991
				c0-0.68906,0.30944-1.14357,0.70008-1.14357C39.31732-7.69865,39.48151-7.47917,39.48151-6.96164z"/>
			<path id="path13816" class="st2" d="M15.3662-5.05253l0.54098-3.19049l0.0795,3.19049h0.61219l1.14215-3.19049l-0.50594,3.19049
				h0.90977l0.70055-4.23157l-1.44519-0.01102l-0.85965,2.59083L16.51702-9.2841h-1.32443l-0.71063,4.23157L15.3662-5.05253
				L15.3662-5.05253z"/>
			<path id="path13818" class="st2" d="M29.0581-5.0465c0.25867-1.47091,0.35079-2.63256,1.10513-2.39198
				c0.10833-0.56933,0.36653-1.06444,0.48446-1.3054c0,0-0.0373-0.05548-0.27044-0.05548
				c-0.39799,0-0.92936,0.80766-0.92936,0.80766l0.07941-0.49934h-0.82763l-0.55426,3.44445h0.91269V-5.0465z"/>
			<g id="use14699" transform="translate(845.3001,0)">
				<path id="path13810_1_" class="st2" d="M-810.90576-8.57658c-0.60968,0-1.07666,0.19584-1.07666,0.19584l-0.12897,0.76555
					c0,0,0.38574-0.15665,0.96832-0.15665c0.33105,0,0.573,0.03721,0.573,0.30614c0,0.16334-0.02948,0.22363-0.02948,0.22363
					s-0.26099-0.02176-0.38196-0.02176c-0.86768,0-1.57581,0.328-1.57581,1.31689c0,0.7793,0.52954,0.958,0.85785,0.958
					c0.62689,0,0.87531-0.39592,0.88953-0.39705l-0.00739,0.32856h0.78271l0.349-2.44727
					C-809.68555-8.54323-810.59131-8.57658-810.90576-8.57658z M-810.77051-6.58937c0.01697,0.1494-0.0387,0.85589-0.57385,0.85589
					c-0.27618,0-0.34778-0.211-0.34778-0.33553c0-0.24341,0.13208-0.53533,0.78326-0.53533
					C-810.75714-6.60435-810.7959-6.59342-810.77051-6.58937z"/>
			</g>
			<path id="use14701" class="st2" d="M36.5153-5.0465c0.14205-1.08215,0.40496-2.60138,1.10504-2.39198
				c0.10823-0.56933,0.00386-0.56783-0.22919-0.56783c-0.39827,0-0.48644,0.01451-0.48644,0.01451l0.0795-0.49934h-0.82753
				l-0.55426,3.44455h0.91288V-5.0465z"/>
		</g>
		<g id="g10289">
			<path id="path4157" class="st3" d="M11.55338,10.62506l0.11125-0.75538c-0.06076,0-0.15015,0.026-0.229,0.026
				c-0.30935,0-0.34345-0.16447-0.32376-0.28608l0.24991-1.54127h0.47014l0.11351-0.83554h-0.4433l0.09024-0.5196h-0.88867
				c-0.01959,0.01959-0.52459,2.92231-0.52459,3.27574c0,0.52327,0.2938,0.75632,0.70809,0.75255
				C11.21163,10.73876,11.46427,10.64899,11.55338,10.62506z"/>
			<path id="path4155" class="st3" d="M11.83494,9.18487c0,1.25585,0.82894,1.55427,1.53515,1.55427
				c0.65185,0,0.93869-0.14572,0.93869-0.14572l0.15656-0.85711c0,0-0.49586,0.21845-0.94368,0.21845
				c-0.95423,0-0.78712-0.71148-0.78712-0.71148h1.80597c0,0,0.11662-0.57583,0.11662-0.81048
				c0-0.58554-0.29145-1.29899-1.26715-1.29899C12.4964,7.13398,11.83494,8.09678,11.83494,9.18487z M13.39335,7.92968
				c0.50151,0,0.40901,0.56359,0.40901,0.60918h-0.98663C12.81573,8.48064,12.90898,7.92968,13.39335,7.92968z"/>
			<path id="path4151" class="st3" d="M19.02075,10.62469l0.15901-0.96883c0,0-0.43604,0.21863-0.73531,0.21863
				c-0.63037,0-0.8832-0.48135-0.8832-0.9985c0-1.04909,0.54239-1.62624,1.1462-1.62624c0.45281,0,0.81623,0.25424,0.81623,0.25424
				l0.14507-0.94132c0,0-0.53891-0.21807-1.00086-0.21807c-1.02591,0-2.02394,0.88998-2.02394,2.56144
				c0,1.10834,0.53891,1.84035,1.59939,1.84035C18.54317,10.74649,19.02075,10.62469,19.02075,10.62469z"/>
			<path id="path4149" class="st3" d="M6.66571,7.14764c-0.60937,0-1.0765,0.19584-1.0765,0.19584L5.46026,8.10903
				c0,0,0.38555-0.15665,0.96836-0.15665c0.33092,0,0.57301,0.03721,0.57301,0.30614c0,0.16334-0.02967,0.22363-0.02967,0.22363
				S6.71093,8.46029,6.59007,8.46029c-0.76856,0-1.57594,0.328-1.57594,1.31689c0,0.77921,0.52968,0.958,0.85796,0.958
				c0.62698,0,0.89724-0.40684,0.91165-0.40807L6.75445,10.6667h0.7825l0.3491-2.44736
				C7.88605,7.18108,6.98034,7.14764,6.66571,7.14764z M6.85609,9.14031C6.87304,9.2898,6.76236,9.99055,6.22732,9.99055
				c-0.276,0-0.34778-0.21082-0.34778-0.33553c0-0.24322,0.13216-0.53523,0.78335-0.53523
				C6.81436,9.11997,6.83056,9.13617,6.85609,9.14031z"/>
			<path id="path4145" class="st3" d="M8.71773,10.71729c0.20017,0,1.34449,0.05087,1.34449-1.12991
				c0-1.10391-1.05926-0.88584-1.05926-1.32933c0-0.2208,0.17267-0.29032,0.48823-0.29032c0.12528,0,0.6073,0.03984,0.6073,0.03984
				l0.1121-0.78467c0,0.00009-0.31198-0.0698-0.8199-0.0698c-0.65741,0-1.32471,0.26244-1.32471,1.16033
				c0,1.01744,1.11267,0.91532,1.11267,1.34393c0,0.28608-0.31085,0.30935-0.5504,0.30935
				c-0.41457,0-0.78787-0.14224-0.78919-0.13546l-0.1185,0.77676C7.74202,10.61461,7.97224,10.71729,8.71773,10.71729z"/>
			<path id="path4139" class="st3" d="M26.38187,6.44351l-0.19169,1.18944c0,0-0.3345-0.46204-0.85814-0.46204
				c-0.81425,0-1.49295,0.98173-1.49295,2.10976c0,0.72815,0.362,1.44161,1.10203,1.44161
				c0.53231,0,0.82744-0.37114,0.82744-0.37114l-0.03909,0.31698h0.86436l0.67889-4.22602L26.38187,6.44351z M25.96919,8.76267
				c0,0.46939-0.23239,1.09637-0.71421,1.09637c-0.3198,0-0.46967-0.26847-0.46967-0.68981
				c0-0.68897,0.30944-1.14357,0.69989-1.14357C25.8051,8.02557,25.96919,8.24533,25.96919,8.76267z"/>
			<path id="path4133" class="st3" d="M1.85398,10.67179l0.54098-3.19049l0.07941,3.19049h0.61229l1.14215-3.19049l-0.50594,3.19049
				h0.90977l0.70065-4.23167H3.92643L3.05029,9.03651L3.0047,6.44012H1.70787l-0.71073,4.23167
				C0.99715,10.67179,1.85398,10.67179,1.85398,10.67179z"/>
			<path id="path4131" class="st3" d="M15.54587,10.67763c0.25867-1.471,0.30662-2.66543,0.9239-2.4468
				c0.10805-0.56933,0.21232-0.78957,0.33026-1.03053c0,0-0.0553-0.01159-0.17135-0.01159
				c-0.39799,0-0.69283,0.54371-0.69283,0.54371l0.07922-0.49935h-0.82744l-0.55436,3.44455H15.54587z"/>
			<g id="use8523" transform="translate(847.0062,0)">
				<path id="path4149_1_" class="st3" d="M-825.93494,7.14764c-0.60938,0-1.07648,0.19584-1.07648,0.19584l-0.12891,0.76555
					c0,0,0.38556-0.15665,0.96838-0.15665c0.33093,0,0.57281,0.03721,0.57281,0.30614c0,0.16334-0.02948,0.22363-0.02948,0.22363
					s-0.26105-0.02185-0.38196-0.02185c-0.76849,0-1.57587,0.328-1.57587,1.31689c0,0.77921,0.5296,0.958,0.85785,0.958
					c0.62701,0,0.89728-0.40684,0.91156-0.40807l-0.02911,0.33959c0,0,0.78223,0,0.78253,0l0.349-2.44736
					C-824.71454,7.18108-825.6203,7.14764-825.93494,7.14764z M-825.74426,9.14031c0.01691,0.14949-0.09387,0.85023-0.62909,0.85023
					c-0.276,0-0.3476-0.21082-0.3476-0.33553c0-0.24322,0.1322-0.53523,0.78326-0.53523
					C-825.78619,9.11997-825.77008,9.13617-825.74426,9.14031z"/>
			</g>
			<g id="use8525" transform="translate(442.2857,0)">
				<path id="path4131_1_" class="st3" d="M-419.2789,10.67763c0.25876-1.471,0.30673-2.66543,0.92383-2.4468
					c0.10822-0.56933,0.21259-0.78957,0.33044-1.03053c0,0-0.0553-0.01159-0.17136-0.01159
					c-0.39798,0-0.69284,0.54371-0.69284,0.54371l0.07922-0.49935h-0.82742l-0.55435,3.44455H-419.2789z"/>
			</g>
		</g>
	</g>
</g>
</svg>
