<?xml version="1.0" encoding="utf-8"?>
<!-- Generator: Adobe Illustrator 20.1.0, SVG Export Plug-In . SVG Version: 6.00 Build 0)  -->
<svg version="1.1" id="Layer_1" xmlns="http://www.w3.org/2000/svg" xmlns:xlink="http://www.w3.org/1999/xlink" x="0px" y="0px"
	 viewBox="0 0 58.375 40.03291" style="enable-background:new 0 0 58.375 40.03291;" xml:space="preserve">
<style type="text/css">
	.st0{fill:#999999;}
</style>
<g>
	<path class="st0" d="M31.89349,24.26887c0,0,0.42792-0.3089,1.1394-0.31903s1.52423,0,1.52423,0l0.20514-0.75452h-2.56238
		L31.89349,24.26887z"/>
	<path class="st0" d="M26.22699,18.6631c0.39752,0,0.71906-0.13672,0.96973-0.41016
		c0.25067-0.27094,0.43042-0.68365,0.53931-1.23309c0.0152-0.08606,0.0304-0.17468,0.04053-0.26331s0.01263-0.16962,0.01263-0.24561
		c0-0.31903-0.08099-0.56714-0.24561-0.74188c-0.16205-0.17725-0.39246-0.26331-0.69122-0.26331
		c-0.39496,0-0.71655,0.13928-0.96722,0.41522c-0.25317,0.27856-0.43292,0.69629-0.54688,1.25586
		c-0.0152,0.08612-0.02783,0.17218-0.04053,0.25574c-0.01013,0.08612-0.01263,0.16711-0.01013,0.23804
		c0,0.31647,0.08105,0.56207,0.24561,0.73425C25.69525,18.57704,25.92566,18.6631,26.22699,18.6631z"/>
	<path class="st0" d="M31.51624,25.68678h2.31677v-0.0025c0.18988,0.02533,0.29626-0.04816,0.3089-0.22534l0.15698-0.56464h-2.56744
		L31.51624,25.68678z"/>
	<path class="st0" d="M39.17291,27.19587c0,0,0.83807-0.41272,1.41284-0.44818c0.16711-0.62286,0.33173-1.16724,0.33173-1.16724
		h-1.30145L39.17291,27.19587z"/>
	<polygon class="st0" points="38.64374,29.01381 39.94012,29.01381 40.27179,27.8415 38.97797,27.8415 	"/>
	<path class="st0" d="M39.82111,24.85884c0,0,0.75452-0.29114,1.40778-0.37219c0.14435-0.53931,0.33167-1.16974,0.33167-1.16974
		h-1.29889L39.82111,24.85884z"/>
	<path class="st0" d="M44.13306,18.72639c0.45831,0.14685,1.04572-0.36713,1.30902-1.14191
		c0.26837-0.77728,0.10382-1.52423-0.35699-1.66858c-0.45575-0.14685-1.04572,0.36462-1.30902,1.14197
		C43.51019,17.83516,43.67224,18.58461,44.13306,18.72639z"/>
	<path class="st0" d="M55.33954,1.49385L11.98212,1.48121c-1.97998,0-4.51703,1.60272-4.97021,3.58527L0.25153,34.96644
		c-0.04053,0.18231-0.06329,0.36206-0.07849,0.5368v0.5545c0.13165,1.42804,1.22296,2.46869,2.79022,2.49146h13.19659h9.96094
		c0.00745,0.00018,0.01385,0.00238,0.0213,0.0025h20.98883c1.91919-0.09369,3.78271-1.65082,4.22076-3.57007L58.1095,5.08168
		C58.56018,3.09913,57.31952,1.49385,55.33954,1.49385z M43.45703,15.0475c1.10901-0.51404,1.68372-0.21021,2.31421,0.28357
		l0.6026-0.41528l1.41791-0.12152l-1.07355,4.88165l-1.63568-0.04303l-0.23798-0.28107
		C40.68451,21.12165,41.94543,15.74885,43.45703,15.0475z M46.39661,22.8611l-0.29114,1.02039h-1.19763
		c-0.45831,0.02283-0.69379-0.15192-0.71405-0.52917l-0.05823-1.31915h1.63062l0.06836,0.6026
		c-0.01013,0.15448,0.08099,0.22534,0.27344,0.22534C46.10798,22.86111,46.39661,22.86111,46.39661,22.8611z M36.91187,11.27992
		h3.72961c0.71655,0,1.27106,0.16205,1.65338,0.48108c0.37976,0.32404,0.5697,0.78741,0.5697,1.39001v0.0177
		c0,0.11395-0.00763,0.24561-0.01776,0.38489c-0.0177,0.13928-0.04303,0.2785-0.07343,0.42535
		c-0.16455,0.80011-0.54688,1.44073-1.13434,1.92938c-0.59247,0.48615-1.29126,0.72919-2.099,0.72919h-2.00024l-0.6178,3.03333
		h-1.73187L36.91187,11.27992z M30.56427,14.49299h1.28369l-0.14685,0.74689l0.18231-0.21265
		c0.41522-0.44562,0.92413-0.66589,1.51917-0.66589c0.53931,0,0.9292,0.15692,1.1723,0.47345
		c0.24054,0.31653,0.3089,0.75201,0.19244,1.31158l-0.70392,3.52954h-1.32166l0.63806-3.19788
		c0.0658-0.32916,0.0481-0.57727-0.05316-0.73425c-0.10382-0.15955-0.2912-0.23804-0.5672-0.23804
		c-0.33929,0-0.62286,0.10638-0.85834,0.31653c-0.23291,0.21265-0.38739,0.50641-0.46082,0.8786l-0.58997,2.97504h-1.31915
		L30.56427,14.49299z M30.15912,22.71681l-0.26331,0.97223h-2.46362c-0.28357,0.42792-0.633,0.62793-1.05328,0.60266h-1.28375
		l0.27856-1.01788h0.24811c0.22791,0,0.38232-0.07593,0.45325-0.22784l0.64563-0.96472h1.72681l-0.35956,0.63556
		C28.08796,22.71682,30.15912,22.71682,30.15912,22.71681z M12.78223,19.05305c-0.71399,0.52661-1.63818,0.79248-2.76746,0.79248
		c-1.06342,0-1.8407-0.27087-2.33954-0.81274c-0.34436-0.38489-0.51648-0.87354-0.51648-1.466
		c0-0.24561,0.03033-0.50641,0.08862-0.78998l1.20264-5.80072H10.268l-1.1875,5.73486
		c-0.03546,0.15955-0.05066,0.3064-0.0481,0.44061c-0.00256,0.2937,0.07086,0.53424,0.21771,0.72156
		c0.21521,0.27856,0.56464,0.41779,1.05078,0.41779c0.55957,0,1.02039-0.13672,1.37738-0.41272
		c0.35699-0.27344,0.58997-0.66333,0.69629-1.16724l1.19-5.73486h1.80786l-1.2027,5.80072
		C13.96973,17.75923,13.50385,18.51625,12.78223,19.05305z M20.05151,16.14637l-0.70642,3.52954h-1.32172l0.63806-3.19788
		c0.06586-0.32916,0.04816-0.57727-0.05316-0.73425c-0.10126-0.15955-0.29114-0.23804-0.56714-0.23804
		c-0.33929,0-0.62543,0.10638-0.85834,0.31653c-0.23297,0.21265-0.38739,0.50641-0.46338,0.8786l-0.5874,2.97504H14.8103
		l1.03558-5.18292h1.28375l-0.14941,0.74689l0.18481-0.21265c0.41528-0.44562,0.92163-0.66589,1.51923-0.66589
		c0.53931,0,0.9292,0.15692,1.1748,0.47345C20.09961,15.15132,20.16547,15.5868,20.05151,16.14637z M22.10999,19.67085h-1.42041
		l1.11151-5.17786h1.42297L22.10999,19.67085z M23.4165,13.8625h-1.4356l0.26837-1.25586h1.43561L23.4165,13.8625z
		 M23.94312,17.48066c0.0127-0.13165,0.0304-0.25824,0.05573-0.37726c0.16962-0.84058,0.52917-1.50903,1.08118-2.00024
		c0.55194-0.49371,1.2204-0.74182,2.00024-0.74182c0.64056,0,1.14697,0.17975,1.51917,0.53674
		c0.37219,0.35956,0.55701,0.8457,0.55701,1.46094c0,0.10632-0.00757,0.22791-0.02277,0.35956
		c-0.0152,0.13422-0.03546,0.2608-0.05823,0.38739c-0.16461,0.82794-0.52411,1.48877-1.07611,1.97241
		c-0.5545,0.48615-1.21783,0.72919-1.99518,0.72919c-0.64313-0.0025-1.14697-0.17725-1.51917-0.52917
		c-0.37219-0.35449-0.55957-0.83557-0.56213-1.44574C23.92285,17.72883,23.93048,17.60981,23.94312,17.48066z M28.10822,30.62666
		h-2.77753c-0.52667,0-0.70642-0.30133-0.54187-0.90393l0.52667-1.92175h-1.13434l0.28864-1.05585h1.13434l0.2785-1.02039h-1.08368
		l0.2912-1.05835h4.53723l-0.28864,1.05585h-1.82556l-0.2785,1.02039h1.7749l-0.28864,1.05585h-1.7749l-0.41522,1.50647
		c-0.10126,0.25067,0.0329,0.36462,0.40002,0.33929h1.4458L28.10822,30.62666z M35.42816,27.60603
		c-0.13928,0.50385-0.50641,0.76715-1.10651,0.79248h-0.78741l-0.0025,1.09381c-0.0152,0.17474,0.14429,0.26587,0.47095,0.26587
		h0.74182l-0.23798,0.86597h-1.77747c-0.49878,0.02277-0.74188-0.21271-0.73676-0.71655l0.10883-2.93964h1.4787l-0.02789,0.64056
		h0.39502c0.20001,0,0.29877-0.06329,0.29877-0.18988l0.11646-0.41522h1.23053L35.42816,27.60603z M34.49133,26.70466h-3.2561
		l-0.76215,2.79272c-0.04047,0.14941,0.02026,0.22534,0.18481,0.22534h0.64063l-0.23547,0.86597H29.435
		c-0.62543,0-0.88367-0.18738-0.78235-0.56464l2.15466-7.95038h1.52173l-0.07092,0.6178c0,0,0.85583-0.64313,1.63312-0.64313
		h2.87128l-1.09888,3.97522C35.57245,26.47676,35.18256,26.70466,34.49133,26.70466z M41.44666,30.14558l-0.13928,0.49121h-1.68121
		l0.13922-0.49121h-3.31433l0.3241-1.13177h0.33167l1.62048-5.6969h-0.33673l0.34436-1.20776h1.73438l-0.07599,0.44305
		c0,0,0.88623-0.44305,1.52423-0.44305c0.63806,0,2.14459,0,2.14459,0l-0.33923,1.20776h-0.33679l-1.61792,5.6969h0.33673
		l-0.32153,1.13177H41.44666z M48.63489,25.31459h-1.68121l-0.28864,1.01788h1.68121l-0.31146,1.09381H46.1637l-0.42285,0.64056
		h0.91656l0.21271,1.28369c0.02533,0.12665,0.13922,0.18994,0.33167,0.18994h0.28357l-0.29877,1.05579H46.1789
		c-0.52161,0.02533-0.79254-0.14935-0.81274-0.52661l-0.2431-1.1723l-0.83301,1.24573
		c-0.19751,0.35193-0.49878,0.51654-0.909,0.49121h-1.53687l0.29877-1.05585h0.48108c0.19745,0,0.36206-0.08862,0.50891-0.26331
		l1.30396-1.88635h-1.68121l0.3114-1.09381h1.82556l0.2912-1.01782h-1.82556l0.30127-1.09637h5.28424L48.63489,25.31459z
		 M50.61237,20.67604c-0.54694,1.16467-1.06848,1.84326-1.37488,2.15723c-0.30634,0.31146-0.91406,1.03809-2.3775,0.98242
		l0.12659-0.88873c1.23053-0.37982,1.89642-2.08887,2.27625-2.84595l-0.45068-5.57538l0.95203-0.01263h0.80011l0.08606,3.49664
		l1.4964-3.4967h1.51666L50.61237,20.67604z"/>
	<path class="st0" d="M40.52753,14.88038c0.24811-0.20007,0.41272-0.50641,0.50385-0.92419
		c0.0152-0.07599,0.02283-0.14685,0.03546-0.21014c0.00507-0.06079,0.0127-0.12152,0.0127-0.17975
		c0-0.29626-0.10638-0.51404-0.31653-0.64819c-0.21265-0.13672-0.54437-0.20258-1.00262-0.20258H38.3526l-0.50897,2.46362h1.65845
		C39.93506,15.17915,40.27686,15.07783,40.52753,14.88038z"/>
</g>
</svg>
