<?xml version="1.0" encoding="utf-8"?>
<!-- Generator: Adobe Illustrator 20.1.0, SVG Export Plug-In . SVG Version: 6.00 Build 0)  -->
<svg version="1.1" id="Layer_1" xmlns="http://www.w3.org/2000/svg" xmlns:xlink="http://www.w3.org/1999/xlink" x="0px" y="0px"
	 viewBox="0 0 38.18467 40.03291" style="enable-background:new 0 0 38.18467 40.03291;" xml:space="preserve">
<style type="text/css">
	.st0{fill:#999999;}
</style>
<path class="st0" d="M19.64332,30.41214c-0.26205-0.86199-0.43721-1.70242-0.32799-2.63151
	c0.23651,0.33246,0.44391,0.6224,0.64966,0.9135c0.87844,1.24286,2.1437,1.97107,3.4786,2.6007
	c0.90191,0.4254,1.8722,0.60167,2.85143,0.74059c1.825,0.25891,3.6702,0.47432,5.35925,1.26545
	c2.68789,1.25898,4.92606,3.03678,6.26805,5.76915c0.11948,0.24327,0.18524,0.51431,0.26006,0.77697
	c0.01459,0.0512-0.04451,0.12341-0.06961,0.18592c-0.05334-0.04003-0.13091-0.06847-0.15644-0.12181
	c-0.51316-1.07232-1.3597-1.86817-2.22547-2.63608c-2.0227-1.79407-4.3887-2.89431-7.04304-3.3757
	c-1.10785-0.20092-2.22752-0.28942-3.35452-0.2496c-1.2272,0.04338-2.409,0.32694-3.59699,0.62046
	c-0.8644,0.21357-1.76451,0.31668-2.65506,0.38062c-0.85987,0.06173-1.73197,0.06382-2.59154-0.00176
	c-2.46934-0.18837-4.84698-0.77253-7.1111-1.79073c-2.01461-0.90599-3.82684-2.1039-5.33678-3.73033
	c-1.61745-1.74224-2.68603-3.79406-3.36642-6.05657c-0.36183-1.20323-0.56663-2.43472-0.64252-3.69184
	c-0.20387-3.37737,0.54329-6.54115,2.15263-9.49801c1.99258-3.66099,4.92502-6.33932,8.68325-8.11754
	c1.66203-0.7864,3.41029-1.29679,5.23199-1.56359c1.14063-0.16705,2.28743-0.24262,3.43381-0.17676
	c4.64757,0.26701,8.65797,1.974,11.84809,5.41504c2.19482,2.36745,3.5493,5.16949,4.09215,8.35926
	c0.19753,1.16065,0.28714,2.33001,0.22609,3.50232c-0.17698,3.39845-1.22507,6.51144-3.13838,9.32905
	c-0.21748,0.32027-0.44846,0.63138-0.68302,0.96056c-0.84937-2.96739-2.69191-4.78866-5.67638-5.25031
	c0.57724-0.13374,1.26046-0.0928,1.94009,0.07399c0.68203,0.16737,1.29498,0.48929,1.92171,0.91527
	c0.09654-0.37108,0.19-0.69384,0.26389-1.02102c0.25233-1.11726,0.36594-2.25077,0.31423-3.394
	c-0.11064-2.44647-0.75775-4.74987-1.92952-6.89919c-1.74591-3.20242-4.23497-5.63457-7.54361-7.20222
	c-1.40032-0.66347-2.87331-1.09185-4.41549-1.23516c-2.76208-0.25666-5.29006,0.36121-7.4735,2.13439
	c-1.9107,1.55168-3.12275,3.5621-3.78844,5.91397c-0.31601,1.11644-0.47079,2.256-0.49753,3.41942
	c-0.07603,3.30798,0.83544,6.32945,2.65463,9.07c1.31425,1.97987,3.13425,3.40879,5.22422,4.50335
	c1.70729,0.89414,3.52464,1.44915,5.43323,1.70561c0.34388,0.04621,0.69072,0.07124,1.03665,0.10074
	C19.42836,30.43194,19.5148,30.41825,19.64332,30.41214z M26.12995,28.98099c0.00147-0.69114,0.54427-1.05512,1.19056-0.79834
	c0.47345,0.1881,0.81853,0.70813,0.80788,1.21744c-0.01357,0.64937-0.57549,1.02468-1.18295,0.79009
	C26.45907,30.00235,26.12882,29.51266,26.12995,28.98099z M30.9472,28.286c0,0.04049,0.01229,0.08621-0.00229,0.12049
	c-0.045,0.10578-0.10026,0.20719-0.15153,0.31031c-0.09684-0.05841-0.22748-0.09404-0.28479-0.17909
	c-0.27739-0.41162-0.49846-0.85295-0.53228-1.35929c-0.00591-0.08851,0.04966-0.23964,0.11084-0.26007
	c0.08635-0.02885,0.2319,0.00529,0.30429,0.06787C30.78428,27.32582,30.90547,27.79116,30.9472,28.286z"/>
</svg>
