<?xml version="1.0" encoding="utf-8"?>
<!-- Generator: Adobe Illustrator 20.1.0, SVG Export Plug-In . SVG Version: 6.00 Build 0)  -->
<svg version="1.1" id="Layer_1" xmlns="http://www.w3.org/2000/svg" xmlns:xlink="http://www.w3.org/1999/xlink" x="0px" y="0px"
	 viewBox="0 0 58.375 40.03291" style="enable-background:new 0 0 58.375 40.03291;" xml:space="preserve">
<style type="text/css">
	.st0{fill:#999999;}
</style>
<path class="st0" d="M54.12128,0.00001H4.25372C1.90448,0.00001,0,1.90443,0,4.25373v31.52545
	c0,2.34924,1.90448,4.25372,4.25372,4.25372h49.86755c2.34924,0,4.25372-1.90448,4.25372-4.25372V4.25373
	C58.375,1.90443,56.47052,0.00001,54.12128,0.00001z M27.74951,31.54011l4.82611-11.74036h3.86096l-4.82617,11.74036H27.74951z
	 M38.05194,28.34907c-1.68066,0-3.263-0.42291-4.65131-1.16382l1.44879-3.52441c0.93329,0.5733,2.02911,0.90607,3.20251,0.90607
	c3.38892,0,6.146-2.75708,6.146-6.146s-2.75708-6.146-6.146-6.146c-2.41614,0-4.50977,1.40192-5.51294,3.43475l-3.33514,7.11023
	c-0.22241,0.35303-0.43073,0.71503-0.61346,1.08423c-1.77966,2.67621-4.81934,4.44495-8.26727,4.44495
	c-5.47443,0-9.92816-4.4538-9.92816-9.92816s4.45374-9.9281,9.92816-9.9281c1.48944,0,2.90179,0.33197,4.17041,0.92303
	l-0.98138,2.38739l1.08557-2.64075h3.8609l-4.82617,11.74036h-3.8609l3.28235-7.98474
	c-0.82324-0.41071-1.75-0.64319-2.73077-0.64319c-3.38892,0-6.146,2.75708-6.146,6.146s2.75708,6.146,6.146,6.146
	c2.2699,0,4.25433-1.23743,5.31763-3.073l3.45142-7.34393c-0.00043-0.00012-0.00073-0.00012-0.00116-0.00024
	c1.59961-3.34241,5.01477-5.65692,8.96094-5.65692c5.47437,0,9.9281,4.45374,9.9281,9.9281S43.52631,28.34907,38.05194,28.34907z"/>
</svg>
