<?xml version="1.0" encoding="utf-8"?>
<!-- Generator: Adobe Illustrator 20.1.0, SVG Export Plug-In . SVG Version: 6.00 Build 0)  -->
<svg version="1.1" id="Layer_1" xmlns="http://www.w3.org/2000/svg" xmlns:xlink="http://www.w3.org/1999/xlink" x="0px" y="0px"
	 viewBox="0 0 58.375 40.03291" style="enable-background:new 0 0 58.375 40.03291;" xml:space="preserve">
<style type="text/css">
	.st0{fill:#999999;}
</style>
<g>
	<path class="st0" d="M41.99298,22.4272c0,0.26031,0.14941,0.70032,0.72546,0.70032c1.11713,0,1.34833-1.46259,1.31305-1.7746
		c-0.05389-0.00867-0.08752-0.04248-0.40369-0.04285C42.26892,21.31007,41.99298,21.91957,41.99298,22.4272z"/>
	<path class="st0" d="M52.84619,19.02644c-0.81494,0-1.46082,0.94879-1.46082,2.38684c0,0.87939,0.31281,1.43976,0.98029,1.43976
		c1.00562,0,1.49066-1.30865,1.49066-2.28833C53.85632,19.48494,53.51385,19.02626,52.84619,19.02644z"/>
	<path class="st0" d="M27.60822,18.82606c-1.01093,0-1.20557,1.14996-1.20557,1.27148h2.05927
		C28.46191,20.00239,28.65497,18.82606,27.60822,18.82606z"/>
	<path class="st0" d="M40.86694,2.5915c-4.49615,0.00122-8.58057,1.72028-11.67023,4.51776
		c-3.09235-2.80286-7.19385-4.51324-11.69318-4.51324c-0.0376,0-0.07477-0.00018-0.1123,0
		C7.82703,2.65675,0.08295,10.43794,0.08295,20.01655c0,9.61597,7.80444,17.42035,17.42059,17.42035
		c4.49896,0,8.60004-1.71051,11.69232-4.51379c3.09192,2.79974,7.18018,4.51941,11.68018,4.51831
		c9.62122-0.00256,17.41876-7.80359,17.41602-17.42487c0-0.00311,0-0.00592,0-0.00885
		C58.28949,10.38643,50.4884,2.58894,40.86694,2.5915z M7.42413,24.54939l1.05603-6.65918l-2.38391,6.65918H4.8183l-0.16577-6.65918
		l-1.12909,6.65918H1.73505l1.48346-8.83228h2.70667l0.09521,5.41913L7.849,15.71711h2.9364L9.323,24.54939H7.42413z
		 M13.75165,24.53877l0.0611-0.7088c-0.03009,0.00256-0.59412,0.85175-1.90277,0.85175c-0.68518,0-1.79071-0.37317-1.79071-1.99951
		c0-2.06403,1.68512-2.7486,3.28925-2.7486c0.25226,0,0.79706,0.04559,0.79706,0.04559s0.06195-0.12585,0.06195-0.46674
		c0-0.56134-0.50531-0.63898-1.19598-0.63898c-1.21643,0-2.02112,0.32697-2.02112,0.32697l0.26917-1.59784
		c0,0,0.97498-0.40875,2.24683-0.40875c0.65668,0,2.54706,0.06976,2.54706,2.23682l-0.72864,5.10809
		C15.38485,24.53877,13.75165,24.53877,13.75165,24.53877z M20.65558,22.28602c0,2.46448-2.38843,2.35834-2.80621,2.35834
		c-1.55597,0-2.0365-0.21436-2.0813-0.22809l0.24731-1.62128c0.00275-0.01416,0.78192,0.28271,1.64722,0.28271
		c0.49994,0,1.14874-0.04852,1.14874-0.64563c0-0.89459-2.32233-0.68146-2.32233-2.80499c0-1.87408,1.39276-2.42188,2.76489-2.42188
		c1.06012,0,1.7113,0.14569,1.7113,0.14569l-0.23395,1.63776c0,0-1.00604-0.08313-1.26758-0.08313
		c-0.65863,0-1.01898,0.14508-1.01898,0.60596C18.4447,20.43708,20.65558,19.98195,20.65558,22.28602z M23.52209,22.92952
		c0.16461,0,0.3512-0.05426,0.47797-0.05426l-0.23218,1.5766c-0.18597,0.04993-0.71332,0.2373-1.39044,0.24304
		c-0.86469,0.00781-1.47791-0.47858-1.47791-1.57074c0-0.73767,1.05402-6.7962,1.09491-6.8371h1.8548l-0.18835,1.08453h0.92523
		l-0.23688,1.7439h-0.98126l-0.52161,3.21692C22.8053,22.58625,22.87646,22.92952,23.52209,22.92952z M27.87604,23.05281
		c0.93469,0,1.9696-0.45593,1.9696-0.45593l-0.32678,1.78894c0,0-0.59863,0.30414-1.95917,0.30414
		c-1.474,0-3.20416-0.62286-3.20416-3.24408c0-2.271,1.38062-4.28052,3.24561-4.28094c2.0365,0,2.64484,1.48914,2.64484,2.71124
		c0,0.48975-0.24341,1.69165-0.24341,1.69165h-3.76941C26.23315,21.56782,25.8844,23.05281,27.87604,23.05281z M32.10095,24.5616
		h-1.90472l1.15704-7.18939h1.72699l-0.16534,1.04218c0,0,0.61536-1.13483,1.44604-1.13483
		c0.24225,0,0.35767,0.02417,0.35767,0.02417c-0.24615,0.50293-0.46381,0.96265-0.68933,2.15094
		C32.74091,18.9983,32.64087,21.49134,32.10095,24.5616z M39.35364,24.45106c0,0-0.99677,0.25421-1.62256,0.25403
		c-2.21344,0-3.33826-1.52783-3.33826-3.84113c0-3.48865,2.08307-5.34619,4.22437-5.34619
		c0.96417,0,2.08893,0.45514,2.08893,0.45514l-0.30273,1.96472c0,0-0.75854-0.53064-1.70367-0.53064
		c-1.26025,0-2.39233,1.20459-2.39233,3.39423c0,1.07941,0.52771,2.08405,1.84344,2.08405c0.62463,0,1.53473-0.4563,1.53473-0.4563
		L39.35364,24.45106z M43.81885,24.53877l0.06079-0.7088c-0.02985,0.00256-0.59393,0.85175-1.90259,0.85175
		c-0.68512,0-1.79053-0.37317-1.79053-1.99951c0-2.06403,1.68518-2.7486,3.28912-2.7486c0.25238,0,0.79724,0.04559,0.79724,0.04559
		s0.06152-0.12585,0.06152-0.46674c0-0.56134-0.50482-0.63898-1.19556-0.63898c-1.21649,0-2.02118,0.32697-2.02118,0.32697
		l0.26904-1.59784c0,0,0.97491-0.40875,2.24677-0.40875c0.65674,0,2.54724,0.06976,2.54712,2.23682l-0.72845,5.10809
		C45.45214,24.53877,43.81885,24.53877,43.81885,24.53877z M47.67328,24.5616H45.7688l1.15704-7.18939h1.72699l-0.16534,1.04218
		c0,0,0.61542-1.13483,1.44604-1.13483c0.24225,0,0.35767,0.02417,0.35767,0.02417c-0.24597,0.50293-0.46381,0.96265-0.6897,2.15094
		C48.31354,18.9983,48.21338,21.49134,47.67328,24.5616z M55.16003,24.5417h-1.80408l0.0816-0.66156
		c0,0-0.61597,0.7746-1.72699,0.7746c-1.54456,0-2.30017-1.48914-2.30017-3.00891c0-2.35437,1.41656-4.40344,3.11609-4.40344
		c1.09296,0,1.79108,0.96436,1.79108,0.96436l0.40015-2.48254l1.85931-0.00299L55.16003,24.5417z"/>
	<path class="st0" d="M11.92554,22.4272c0,0.26031,0.14978,0.70032,0.72583,0.70032c1.11676,0,1.34778-1.46259,1.31238-1.7746
		c-0.05328-0.00867-0.0871-0.04248-0.40326-0.04285C12.20135,21.31007,11.92554,21.91957,11.92554,22.4272z"/>
</g>
</svg>
